module gitlab.com/DeveloperDurp/durpot

go 1.19

require (
	github.com/bwmarrin/discordgo v0.26.1
	github.com/sashabaranov/go-openai v1.5.7
)

require (
	github.com/gorilla/websocket v1.4.2 // indirect
	golang.org/x/crypto v0.0.0-20210421170649-83a5a9bb288b // indirect
	golang.org/x/sys v0.1.0 // indirect
)
